{
  "installed": {
    "client_id": "241433726795-7j3v6l6jlln1agio5maro1famv6iv5ic.apps.googleusercontent.com",
    "project_id": "sportpartner",
    "auth_uri": "https://accounts.google.com/o/oauth2/auth",
    "token_uri": "https://oauth2.googleapis.com/token",
    "auth_provider_x509_cert_url": "https://www.googleapis.com/oauth2/v1/certs",
    "client_secret": "gq7AmOdn7FGwNLBtzM51d7ZO",
    "redirect_uris": [
      "urn:ietf:wg:oauth:2.0:oob",
      "http://localhost"
    ]
  }
}